<?xml version="1.0" encoding="UTF-8" standalone="no"?>
<svg
   xmlns:dc="http://purl.org/dc/elements/1.1/"
   xmlns:cc="http://creativecommons.org/ns#"
   xmlns:rdf="http://www.w3.org/1999/02/22-rdf-syntax-ns#"
   xmlns:svg="http://www.w3.org/2000/svg"
   xmlns="http://www.w3.org/2000/svg"
   xmlns:sodipodi="http://sodipodi.sourceforge.net/DTD/sodipodi-0.dtd"
   xmlns:inkscape="http://www.inkscape.org/namespaces/inkscape"
   inkscape:version="1.0 (4035a4fb49, 2020-05-01)"
   sodipodi:docname="ADEME_logo_2020.svg"
   viewBox="0 0 72.725334 85.733326"
   height="85.73333"
   width="72.725334"
   xml:space="preserve"
   id="svg28"
   version="1.1"><metadata
     id="metadata34"><rdf:RDF><cc:Work
         rdf:about=""><dc:format>image/svg+xml</dc:format><dc:type
           rdf:resource="http://purl.org/dc/dcmitype/StillImage" /><dc:title></dc:title></cc:Work></rdf:RDF></metadata><defs
     id="defs32"><clipPath
       id="clipPath44"
       clipPathUnits="userSpaceOnUse"><path
         id="path42"
         d="M 45.355,45.413 H 595.276 V 684.009 H 45.355 Z" /></clipPath><clipPath
       id="clipPath58"
       clipPathUnits="userSpaceOnUse"><path
         id="path56"
         d="M 0,0 H 595.276 V 793.701 H 0 Z" /></clipPath><clipPath
       id="clipPath66"
       clipPathUnits="userSpaceOnUse"><path
         id="path64"
         d="M 44.3543,685.009 H 610.449 V 534.748 H 44.3543 Z" /></clipPath><clipPath
       id="clipPath70"
       clipPathUnits="userSpaceOnUse"><path
         id="path68"
         d="M -32768,32767 H 32767 V -32768 H -32768 Z" /></clipPath><linearGradient
       id="linearGradient76"
       spreadMethod="pad"
       gradientTransform="matrix(0,-148.26132,148.26132,0,45.35433,684.00936)"
       gradientUnits="userSpaceOnUse"
       y2="0"
       x2="1"
       y1="0"
       x1="0"><stop
         id="stop72"
         offset="0"
         style="stop-opacity:1;stop-color:#ffffff" /><stop
         id="stop74"
         offset="1"
         style="stop-opacity:0;stop-color:#ffffff" /></linearGradient><mask
       id="mask78"
       height="1"
       width="1"
       y="0"
       x="0"
       maskUnits="userSpaceOnUse"><g
         id="g88"><g
           id="g86"
           clip-path="url(#clipPath70)"><g
             id="g84"><g
               id="g82"><path
                 id="path80"
                 style="fill:url(#linearGradient76);stroke:none"
                 d="M -32768,32767 H 32767 V -32768 H -32768 Z" /></g></g></g></g></mask><clipPath
       id="clipPath92"
       clipPathUnits="userSpaceOnUse"><path
         id="path90"
         d="M 44.3543,685.009 H 610.449 V 534.748 H 44.3543 Z" /></clipPath><clipPath
       id="clipPath136"
       clipPathUnits="userSpaceOnUse"><path
         id="path134"
         d="M 0,0 H 595.276 V 793.701 H 0 Z" /></clipPath><clipPath
       id="clipPath160"
       clipPathUnits="userSpaceOnUse"><path
         id="path158"
         d="M 0,0 H 595.276 V 793.701 H 0 Z" /></clipPath><clipPath
       id="clipPath186"
       clipPathUnits="userSpaceOnUse"><path
         id="path184"
         d="M 0,0 H 595.276 V 793.701 H 0 Z" /></clipPath><clipPath
       id="clipPath210"
       clipPathUnits="userSpaceOnUse"><path
         id="path208"
         d="M 0,0 H 595.276 V 793.701 H 0 Z" /></clipPath><clipPath
       id="clipPath230"
       clipPathUnits="userSpaceOnUse"><path
         id="path228"
         d="M 0,0 H 595.276 V 793.701 H 0 Z" /></clipPath><clipPath
       id="clipPath248"
       clipPathUnits="userSpaceOnUse"><path
         id="path246"
         d="M 0,0 H 595.276 V 793.701 H 0 Z" /></clipPath><clipPath
       id="clipPath264"
       clipPathUnits="userSpaceOnUse"><path
         id="path262"
         d="M 0,0 H 595.276 V 793.701 H 0 Z" /></clipPath><clipPath
       id="clipPath308"
       clipPathUnits="userSpaceOnUse"><path
         id="path306"
         d="M 0,0 H 595.276 V 793.701 H 0 Z" /></clipPath><clipPath
       id="clipPath328"
       clipPathUnits="userSpaceOnUse"><path
         id="path326"
         d="M 0,0 H 595.276 V 793.701 H 0 Z" /></clipPath><clipPath
       id="clipPath356"
       clipPathUnits="userSpaceOnUse"><path
         id="path354"
         d="M 0,0 H 595.276 V 793.701 H 0 Z" /></clipPath><clipPath
       id="clipPath376"
       clipPathUnits="userSpaceOnUse"><path
         id="path374"
         d="M 0,0 H 595.276 V 793.701 H 0 Z" /></clipPath><clipPath
       id="clipPath392"
       clipPathUnits="userSpaceOnUse"><path
         id="path390"
         d="M 0,0 H 595.276 V 793.701 H 0 Z" /></clipPath><clipPath
       id="clipPath420"
       clipPathUnits="userSpaceOnUse"><path
         id="path418"
         d="M 0,0 H 595.276 V 793.701 H 0 Z" /></clipPath><clipPath
       id="clipPath440"
       clipPathUnits="userSpaceOnUse"><path
         id="path438"
         d="M 0,0 H 595.276 V 793.701 H 0 Z" /></clipPath><clipPath
       id="clipPath460"
       clipPathUnits="userSpaceOnUse"><path
         id="path458"
         d="M 0,0 H 595.276 V 793.701 H 0 Z" /></clipPath><clipPath
       id="clipPath484"
       clipPathUnits="userSpaceOnUse"><path
         id="path482"
         d="M 0,0 H 595.276 V 793.701 H 0 Z" /></clipPath><clipPath
       id="clipPath504"
       clipPathUnits="userSpaceOnUse"><path
         id="path502"
         d="M 0,0 H 595.276 V 793.701 H 0 Z" /></clipPath><clipPath
       id="clipPath522"
       clipPathUnits="userSpaceOnUse"><path
         id="path520"
         d="M 0,0 H 595.276 V 793.701 H 0 Z" /></clipPath></defs><sodipodi:namedview
     inkscape:current-layer="g36"
     inkscape:window-maximized="1"
     inkscape:window-y="0"
     inkscape:window-x="0"
     inkscape:cy="42.866665"
     inkscape:cx="36.362667"
     inkscape:zoom="8.853033"
     showgrid="false"
     id="namedview30"
     inkscape:window-height="1021"
     inkscape:window-width="1920"
     inkscape:pageshadow="2"
     inkscape:pageopacity="0"
     guidetolerance="10"
     gridtolerance="10"
     objecttolerance="10"
     borderopacity="1"
     bordercolor="#666666"
     pagecolor="#ffffff" /><g
     transform="matrix(1.3333333,0,0,-1.3333333,-660.50265,1028.032)"
     inkscape:label="logotype"
     inkscape:groupmode="layer"
     id="g36"><path
       id="path298"
       style="fill:#00489a;fill-opacity:1;fill-rule:nonzero;stroke:none"
       d="m 549.921,706.724 h -54.544 v 64.3 h 54.544 z" /><path
       id="path300"
       style="fill:#ffffff;fill-opacity:1;fill-rule:nonzero;stroke:none"
       d="m 496.59,707.937 h 52.119 v 61.874 H 496.59 Z" /><g
       id="g302"><g
         clip-path="url(#clipPath308)"
         id="g304"><g
           transform="translate(511.937,734.8929)"
           id="g310"><path
             id="path312"
             style="fill:#8f99cd;fill-opacity:1;fill-rule:nonzero;stroke:none"
             d="m 0,0 c 2.313,-3.494 6.281,-5.8 10.785,-5.8 7.14,0 12.928,5.789 12.928,12.927 0,0.697 -0.055,1.379 -0.161,2.045 -0.602,3.785 -2.846,7.022 -5.98,8.96 -1.973,1.219 -4.297,1.922 -6.787,1.922 -2.196,0 -4.266,-0.547 -6.077,-1.514 C 3.184,17.725 1.842,16.616 0.759,15.286 -0.753,13.43 -1.76,11.148 -2.053,8.648 -2.111,8.148 -2.142,7.642 -2.142,7.127 -2.142,4.493 -1.354,2.043 0,0" /></g><g
           transform="translate(518.5333,746.2246)"
           id="g314"><path
             id="path316"
             style="fill:#00489a;fill-opacity:1;fill-rule:nonzero;stroke:none"
             d="M 0,0 0.688,-0.11 0.451,-0.563 -0.14,-0.236 Z M 2.771,1.509 2.194,1 V 0.655 L 3.112,0.429 4.94,1.67 4.892,2.177 4.167,2.428 Z M 3.055,2.871 2.889,2.878 2.571,2.298 2.074,2.259 1.508,1.442 1.816,1.247 2.579,1.733 3.163,2.356 Z m 1.03,1.603 -1.169,-0.931 0.415,-0.3 0.934,0.951 z m -8.997,-5.196 0.406,-0.049 0.126,0.959 0.002,0.287 -0.071,0.292 -0.209,0.017 z m 0.215,-0.631 0.128,-0.202 0.246,-0.037 0.111,0.497 -0.403,0.097 z m 0.235,-0.49 0.04,-0.263 0.25,10e-4 -0.034,0.284 z m 0.142,-0.564 0.071,-0.171 0.21,0.094 c 0,0 -0.058,0.156 -0.064,0.156 z m 0.128,-0.487 c 0.004,0 0.181,0.069 0.181,0.069 l -0.07,0.152 c 0,0 -0.101,-0.087 -0.1,-0.098 z m 8.587,0.752 c 0,0 -0.328,-0.803 -0.328,-0.807 0,0 0.518,-0.049 0.518,-0.053 l 0.122,0.66 -0.089,0.067 0.06,0.226 -0.26,0.143 -0.084,-0.171 z m -0.759,-0.557 0.282,-0.079 0.085,0.262 -0.201,0.048 z m 6.069,-10.17 -0.408,-0.237 -0.521,-0.109 -1.144,-1.124 0.07,-0.25 0.166,0.022 0.653,0.281 c 0.169,0.073 0.705,0.373 0.983,0.672 0.262,0.285 0.342,0.394 0.494,0.684 z m -0.302,-1.57 c 0,-0.004 -0.139,0.154 -0.139,0.154 0.001,-0.006 -0.216,-0.132 -0.216,-0.132 0,0 0.164,-0.164 0.159,-0.164 z m -4.332,9.736 -0.162,0.02 -0.011,-0.306 0.163,-0.03 0.097,0.393 -0.051,0.021 z m -9.653,1.692 0.057,-0.245 0.233,0.078 -0.077,0.246 z m -2.015,-8.321 0.893,0.741 0.735,-0.185 1.962,1.477 0.094,0.788 -1.29,1.88 c -0.02,0.029 -0.104,1.204 -0.354,2.084 -0.131,0.46 -0.432,1.798 -0.445,1.825 l -0.17,0.341 -1.226,1.841 0.796,1.991 0.635,0.028 0.038,0.293 -0.47,0.393 -0.014,0.084 -0.016,0.373 c 0,0.255 0.431,0.51 0.718,0.51 0.075,0 0.156,-0.012 0.24,-0.036 0.2,-0.054 0.39,-0.219 0.56,-0.344 0.032,-0.022 0.566,-1.269 0.566,-1.269 L -3.798,1.119 -4.02,0.573 -3.711,0.33 -3.279,1.076 -1.491,0.474 -0.394,-0.15 -0.062,0.214 0.859,0.138 1.532,1.054 0.924,1.285 1.562,2.054 1.486,2.312 0.512,2.5 1.258,3.282 1.966,2.821 1.951,2.613 2.409,2.557 2.796,3.291 2.526,3.528 3.665,4.624 4.695,5.105 5.498,5.631 5.653,5.753 5.686,6.318 5.549,6.717 5.194,6.854 5.649,7.211 5.524,7.278 C 5.22,7.076 4.5,6.581 3.242,6.491 2.347,6.428 0.536,6.826 0.536,6.826 l -1.796,0.27 -0.627,0.11 C -3.412,6.393 -4.753,5.285 -5.837,3.955 l -0.055,-1.696 -0.27,-0.775 -0.643,-2.245 0.207,-0.632 -1.02,-0.146 -1.03,-1.145 c -0.057,-0.499 -0.087,-1.006 -0.087,-1.52 0,-2.634 0.788,-5.085 2.14,-7.128 M 10.976,6.797 c 3.133,-1.937 5.378,-5.174 5.98,-8.96 l -0.001,0.003 -1.01,-0.865 -0.646,0.153 -0.301,-0.266 0.021,-0.179 c 0.01,-0.082 0.047,-0.25 0.109,-0.501 0.129,-0.514 0.195,-1.028 0.195,-1.528 0,-0.467 -0.019,-0.619 -0.123,-1.07 l -0.55,-0.002 -1.547,1.254 -1.18,-0.265 -0.761,0.129 -0.965,-0.295 0.436,-0.377 0.758,0.214 0.655,-0.523 -0.103,-0.229 -0.27,-0.437 -0.581,-0.831 -0.896,-0.723 -1.657,1.719 -0.428,-0.046 1.767,-2.024 0.716,0.143 0.179,-0.366 -0.722,-1.179 -1.403,-1.34 -0.63,-1.598 C 8.003,-13.234 7.937,-13.284 7.835,-13.333 7.633,-13.43 7.395,-13.605 7.131,-13.853 6.792,-14.17 6.603,-14.345 6.562,-14.38 6.283,-14.625 5.949,-14.881 5.558,-15.143 5.171,-15.404 4.784,-15.634 4.4,-15.83 c -0.679,-0.346 -1.442,-0.537 -2.133,-0.537 -0.452,0 -0.911,0.077 -1.358,0.228 -0.062,0.021 -0.101,0.052 -0.101,0.079 l 0.306,0.865 c 0.013,0.041 0.273,0.334 0.761,0.867 0.222,0.242 0.401,0.569 0.527,0.959 0.185,0.575 0.316,0.928 0.393,1.053 0.28,0.453 0.414,0.839 0.32,0.933 l -1.833,1.844 -0.769,1.429 0.082,0.339 c 0.057,0.235 0.243,0.649 0.601,1.331 0.192,0.369 0.351,0.564 0.528,0.651 l 1.225,0.604 2.381,-0.359 0.725,-0.483 0.341,0.041 1.454,-0.378 0.364,0.947 -1.848,0.52 -0.654,0.65 -0.09,-0.024 0.306,-0.773 -0.37,-0.073 -0.039,0.09 0.128,0.024 C 5.653,-5.011 5.537,-4.528 5.25,-4.393 5.147,-4.345 5.079,-4.3 4.974,-4.3 4.834,-4.3 4.602,-4.386 4.483,-4.497 4.079,-4.87 3.763,-5.124 3.734,-5.102 l -0.759,0.574 0.281,0.707 0.117,-0.028 c 0.068,-0.017 0.142,-0.025 0.215,-0.025 0.238,0 0.386,0.139 0.415,0.276 0.037,0.17 -0.081,0.253 -0.081,0.253 0.004,0.004 -0.072,0.081 -0.072,0.081 0,-0.01 0.109,0.123 0.104,0.123 -0.003,0 0.288,-0.074 0.455,-0.084 0.193,-0.011 0.383,0.033 0.461,0.119 l 0.183,0.29 0.309,0.086 0.054,0.41 0.19,-0.013 c 0,0 0.107,-0.147 0.151,-0.345 L 6.291,-2.539 6.45,-1.991 6.364,-1.894 6.598,-1.369 6.395,-1.226 6.052,-2.195 5.863,-2.219 5.78,-2.003 5.297,-2.04 5.028,-1.606 5.613,-1.003 6.184,-0.238 6.99,-0.491 7.187,-0.889 7.432,-0.883 7.343,-0.302 8.002,0.317 7.562,2.305 7.843,2.929 8.163,2.91 8.206,3.4 6.103,5.703 6.171,6.325 7.911,6.722 8.161,6.647 9.151,6.743 9.38,6.64 10.976,6.799 Z M 10.947,6.413 8.922,5.982 l 1.397,-0.804 0.47,0.549 0.573,0.365 z" /></g></g></g><g
       transform="translate(508.1753,758.9667)"
       id="g318"><path
         id="path320"
         style="fill:#e42313;fill-opacity:1;fill-rule:nonzero;stroke:none"
         d="M 0,0 -0.335,1.076 H -2.556 L -2.911,0 h -1.856 l 2.627,7.226 h 1.369 L 1.856,0 Z M -1.41,4.486 -2.059,2.557 h 1.258 z" /></g><g
       id="g322"><g
         clip-path="url(#clipPath328)"
         id="g324"><g
           transform="translate(516.6785,759.6771)"
           id="g330"><path
             id="path332"
             style="fill:#e42313;fill-opacity:1;fill-rule:nonzero;stroke:none"
             d="m 0,0 c -0.497,-0.497 -1.197,-0.71 -1.948,-0.71 h -2.678 v 7.226 h 2.678 C -1.197,6.516 -0.497,6.303 0,5.805 0.842,4.963 0.751,4.039 0.751,2.903 0.751,1.766 0.842,0.842 0,0 M -1.217,4.526 C -1.379,4.77 -1.623,4.932 -2.069,4.932 H -2.85 V 0.873 h 0.781 c 0.446,0 0.69,0.162 0.852,0.406 0.142,0.203 0.193,0.396 0.193,1.624 0,1.218 -0.051,1.42 -0.193,1.623" /></g></g></g><g
       transform="translate(519.8403,758.9667)"
       id="g334"><path
         id="path336"
         style="fill:#e42313;fill-opacity:1;fill-rule:nonzero;stroke:none"
         d="M 0,0 V 7.226 H 4.909 V 5.643 H 1.775 V 4.435 H 4.453 V 2.852 H 1.775 V 1.583 H 4.909 V 0 Z" /></g><g
       transform="translate(532.171,758.9667)"
       id="g338"><path
         id="path340"
         style="fill:#e42313;fill-opacity:1;fill-rule:nonzero;stroke:none"
         d="M 0,0 V 3.461 L -1.025,1.675 H -2.161 L -3.185,3.461 V 0 H -4.96 v 7.226 h 1.744 L -1.593,4.039 0.031,7.226 H 1.775 V 0 Z" /></g><g
       transform="translate(536.5792,758.9667)"
       id="g342"><path
         id="path344"
         style="fill:#e42313;fill-opacity:1;fill-rule:nonzero;stroke:none"
         d="M 0,0 V 7.226 H 4.909 V 5.643 H 1.775 V 4.435 H 4.453 V 2.852 H 1.775 V 1.583 H 4.909 V 0 Z" /></g><g
       transform="translate(504.8462,725.0273)"
       id="g346"><path
         id="path348"
         style="fill:#e42313;fill-opacity:1;fill-rule:nonzero;stroke:none"
         d="m 0,0 -1.15,-3.162 h 0.75 l 0.16,0.482 h 1.051 l 0.15,-0.482 h 0.75 L 0.561,0 Z m -0.043,-2.092 0.345,1.024 0.323,-1.024 z" /></g><g
       id="g350"><g
         clip-path="url(#clipPath356)"
         id="g352"><g
           transform="translate(508.6075,721.8384)"
           id="g358"><path
             id="path360"
             style="fill:#e42313;fill-opacity:1;fill-rule:nonzero;stroke:none"
             d="m 0,0 c 0.402,0 0.675,0.105 0.914,0.352 v 0 C 1.145,0.587 1.231,0.873 1.231,1.404 V 1.816 H 0.038 V 1.228 H 0.515 V 1.144 C 0.515,0.99 0.468,0.858 0.381,0.772 0.296,0.68 0.167,0.634 0,0.634 c -0.145,0 -0.27,0.054 -0.344,0.151 -0.076,0.1 -0.126,0.211 -0.126,0.823 0,0.607 0.05,0.719 0.126,0.819 0.075,0.098 0.203,0.156 0.344,0.156 0.27,0 0.419,-0.11 0.493,-0.364 H 1.22 C 1.161,2.551 0.928,3.216 0,3.216 -0.36,3.216 -0.629,3.107 -0.873,2.863 -1.191,2.546 -1.19,2.117 -1.19,1.662 V 1.554 C -1.19,1.099 -1.191,0.67 -0.873,0.353 -0.633,0.112 -0.355,0 0,0" /></g></g></g><g
       transform="translate(511.7756,723.1432)"
       id="g362"><path
         id="path364"
         style="fill:#e42313;fill-opacity:1;fill-rule:nonzero;stroke:none"
         d="M 0,0 H 1.2 V 0.634 H 0 V 1.251 H 1.405 V 1.884 H -0.72 v -3.162 h 2.125 v 0.634 H 0 Z" /></g><g
       transform="translate(516.8638,721.8656)"
       id="g366"><path
         id="path368"
         style="fill:#e42313;fill-opacity:1;fill-rule:nonzero;stroke:none"
         d="m 0,0 v 3.162 h -0.72 v -1.72 l -1.095,1.72 H -2.453 V 0 h 0.72 V 1.72 L -0.637,0 Z" /></g><g
       id="g370"><g
         clip-path="url(#clipPath376)"
         id="g372"><g
           transform="translate(519.7177,722.8172)"
           id="g378"><path
             id="path380"
             style="fill:#e42313;fill-opacity:1;fill-rule:nonzero;stroke:none"
             d="m 0,0 c -0.047,-0.156 -0.148,-0.345 -0.442,-0.345 -0.145,0 -0.271,0.055 -0.344,0.151 -0.077,0.1 -0.131,0.218 -0.131,0.823 0,0.606 0.054,0.723 0.131,0.824 0.073,0.096 0.199,0.151 0.344,0.151 0.294,0 0.395,-0.189 0.442,-0.346 H 0.736 C 0.616,1.881 0.187,2.237 -0.447,2.237 -0.802,2.237 -1.08,2.125 -1.32,1.884 -1.637,1.568 -1.637,1.138 -1.637,0.684 V 0.575 c 0,-0.455 0,-0.884 0.317,-1.201 0.24,-0.241 0.518,-0.353 0.873,-0.353 0.634,0 1.063,0.356 1.183,0.979 z" /></g></g></g><g
       transform="translate(522.2662,723.1432)"
       id="g382"><path
         id="path384"
         style="fill:#e42313;fill-opacity:1;fill-rule:nonzero;stroke:none"
         d="M 0,0 H 1.201 V 0.634 H 0 V 1.251 H 1.405 V 1.884 H -0.72 v -3.162 h 2.125 v 0.634 H 0 Z" /></g><g
       id="g386"><g
         clip-path="url(#clipPath392)"
         id="g388"><g
           transform="translate(529.3071,723.308)"
           id="g394"><path
             id="path396"
             style="fill:#e42313;fill-opacity:1;fill-rule:nonzero;stroke:none"
             d="m 0,0 c 0,0.045 0,0.091 0,0.137 0,0.047 0,0.092 0,0.137 0.004,0.45 0.006,0.805 -0.326,1.137 -0.201,0.201 -0.494,0.307 -0.846,0.307 h -1.163 v -3.162 h 1.163 c 0.352,0 0.645,0.107 0.846,0.308 C 0.006,-0.805 0.004,-0.449 0,0 M -0.813,-0.612 C -0.904,-0.747 -1.035,-0.81 -1.227,-0.81 h -0.387 v 1.895 h 0.387 c 0.192,0 0.323,-0.064 0.414,-0.199 0.071,-0.103 0.093,-0.214 0.093,-0.749 0,-0.566 -0.024,-0.651 -0.093,-0.749" /></g></g></g><g
       transform="translate(531.2439,723.1421)"
       id="g398"><path
         id="path400"
         style="fill:#e42313;fill-opacity:1;fill-rule:nonzero;stroke:none"
         d="M 0,0 H 1.201 V 0.634 H 0 V 1.251 H 1.405 V 1.884 H -0.72 v -3.162 h 2.125 v 0.634 H 0 Z" /></g><g
       transform="translate(536.6716,725.0273)"
       id="g402"><path
         id="path404"
         style="fill:#e42313;fill-opacity:1;fill-rule:nonzero;stroke:none"
         d="m 0,0 h -0.72 v -3.162 h 2.079 v 0.634 H 0 Z" /></g><g
       transform="translate(540.8394,721.8656)"
       id="g406"><path
         id="path408"
         style="fill:#e42313;fill-opacity:1;fill-rule:nonzero;stroke:none"
         d="M 0,0 H 0.75 L -0.4,3.162 H -0.96 L -2.111,0 h 0.751 l 0.159,0.482 h 1.051 z m -1.004,1.07 0.346,1.024 0.323,-1.024 z" /></g><g
       transform="translate(504.6132,716.7119)"
       id="g410"><path
         id="path412"
         style="fill:#e42313;fill-opacity:1;fill-rule:nonzero;stroke:none"
         d="M 0,0 H 0.721 V 2.528 H 1.518 V 3.162 H -0.797 V 2.528 H 0 Z" /></g><g
       id="g414"><g
         clip-path="url(#clipPath420)"
         id="g416"><g
           transform="translate(509.8177,718.0582)"
           id="g422"><path
             id="path424"
             style="fill:#e42313;fill-opacity:1;fill-rule:nonzero;stroke:none"
             d="m 0,0 c 0.119,0.06 0.507,0.294 0.507,0.812 0,0.499 -0.367,1.003 -1.068,1.003 h -1.246 v -3.161 h 0.721 v 1.205 h 0.33 l 0.574,-1.205 h 0.838 l -0.69,1.329 z m -0.598,0.447 h -0.488 v 0.73 h 0.488 c 0.25,0 0.384,-0.188 0.384,-0.365 0,-0.177 -0.134,-0.365 -0.384,-0.365" /></g></g></g><g
       transform="translate(513.1581,719.8737)"
       id="g426"><path
         id="path428"
         style="fill:#e42313;fill-opacity:1;fill-rule:nonzero;stroke:none"
         d="M 0,0 -1.152,-3.162 H -0.4 l 0.159,0.482 h 1.053 l 0.15,-0.482 H 1.713 L 0.562,0 Z m -0.043,-2.092 0.345,1.025 0.324,-1.025 z" /></g><g
       transform="translate(516.6304,719.8737)"
       id="g430"><path
         id="path432"
         style="fill:#e42313;fill-opacity:1;fill-rule:nonzero;stroke:none"
         d="m 0,0 v -3.162 h 0.721 v 1.72 l 1.097,-1.72 H 2.456 V 0 H 1.735 V -1.72 L 0.638,0 Z" /></g><g
       id="g434"><g
         clip-path="url(#clipPath440)"
         id="g436"><g
           transform="translate(522.4108,718.6054)"
           id="g442"><path
             id="path444"
             style="fill:#e42313;fill-opacity:1;fill-rule:nonzero;stroke:none"
             d="m 0,0 -0.392,0.054 c -0.104,0.013 -0.186,0.049 -0.244,0.106 -0.067,0.068 -0.075,0.147 -0.075,0.178 0,0.162 0.134,0.337 0.429,0.337 h 0.025 c 0.143,0.001 0.39,0.002 0.589,-0.176 l 0.449,0.447 c -0.257,0.241 -0.579,0.349 -1.04,0.349 -0.685,0 -1.146,-0.395 -1.146,-0.985 0,-0.269 0.072,-0.478 0.213,-0.624 0.139,-0.143 0.35,-0.235 0.629,-0.275 l 0.392,-0.054 c 0.105,-0.014 0.184,-0.047 0.235,-0.097 0.051,-0.057 0.075,-0.127 0.075,-0.218 0,-0.15 -0.087,-0.329 -0.503,-0.329 -0.147,0 -0.503,0.021 -0.723,0.212 l -0.457,-0.456 c 0.28,-0.273 0.635,-0.39 1.176,-0.39 0.605,0 1.215,0.303 1.215,0.981 0,0.308 -0.076,0.531 -0.23,0.682 C 0.484,-0.126 0.277,-0.039 0,0" /></g></g></g><path
       id="path446"
       style="fill:#e42313;fill-opacity:1;fill-rule:nonzero;stroke:none"
       d="m 525.196,716.712 h 0.721 v 3.162 h -0.721 z" /><g
       transform="translate(528.5928,716.7119)"
       id="g448"><path
         id="path450"
         style="fill:#e42313;fill-opacity:1;fill-rule:nonzero;stroke:none"
         d="M 0,0 H 0.721 V 2.528 H 1.518 V 3.162 H -0.797 V 2.528 H 0 Z" /></g><path
       id="path452"
       style="fill:#e42313;fill-opacity:1;fill-rule:nonzero;stroke:none"
       d="m 531.99,716.712 h 0.721 v 3.162 h -0.721 z" /><g
       id="g454"><g
         clip-path="url(#clipPath460)"
         id="g456"><g
           transform="translate(537.0687,718.3469)"
           id="g462"><path
             id="path464"
             style="fill:#e42313;fill-opacity:1;fill-rule:nonzero;stroke:none"
             d="M 0,0 C 0.001,0.454 0.001,0.884 -0.317,1.201 -0.561,1.445 -0.832,1.554 -1.196,1.554 -1.56,1.554 -1.831,1.445 -2.076,1.201 -2.393,0.884 -2.393,0.454 -2.392,0 v -0.108 c -10e-4,-0.455 -10e-4,-0.884 0.316,-1.202 0.245,-0.244 0.516,-0.352 0.88,-0.352 0.364,0 0.635,0.108 0.879,0.352 0.318,0.318 0.318,0.747 0.317,1.202 z m -0.847,-0.869 c -0.06,-0.077 -0.183,-0.16 -0.349,-0.16 -0.167,0 -0.289,0.083 -0.349,0.16 -0.079,0.104 -0.127,0.21 -0.127,0.815 0,0.607 0.051,0.718 0.127,0.819 0.075,0.097 0.205,0.155 0.349,0.155 0.143,0 0.274,-0.058 0.349,-0.155 0.076,-0.101 0.126,-0.212 0.126,-0.819 0,-0.605 -0.047,-0.711 -0.126,-0.815" /></g></g></g><g
       transform="translate(541.4901,716.7119)"
       id="g466"><path
         id="path468"
         style="fill:#e42313;fill-opacity:1;fill-rule:nonzero;stroke:none"
         d="m 0,0 v 3.162 h -0.721 v -1.72 l -1.097,1.72 H -2.456 V 0 h 0.721 V 1.72 L -0.638,0 Z" /></g><g
       transform="translate(504.5418,712.8329)"
       id="g470"><path
         id="path472"
         style="fill:#e42313;fill-opacity:1;fill-rule:nonzero;stroke:none"
         d="M 0,0 H 1.205 V 0.636 H 0 V 1.255 H 1.41 V 1.891 H -0.723 V -1.282 H 1.41 v 0.636 H 0 Z" /></g><g
       transform="translate(504.846,715.8645)"
       id="g474"><path
         id="path476"
         style="fill:#e42313;fill-opacity:1;fill-rule:nonzero;stroke:none"
         d="M 0,0 -0.203,-0.745 H 0.178 L 0.668,0 Z" /></g><g
       id="g478"><g
         clip-path="url(#clipPath484)"
         id="g480"><g
           transform="translate(509.3855,713.7686)"
           id="g486"><path
             id="path488"
             style="fill:#e42313;fill-opacity:1;fill-rule:nonzero;stroke:none"
             d="M 0,0 H 0.739 C 0.618,0.625 0.188,0.982 -0.448,0.982 -0.805,0.982 -1.084,0.87 -1.324,0.629 -1.643,0.31 -1.643,-0.121 -1.642,-0.577 v -0.109 c -0.001,-0.456 -0.001,-0.887 0.318,-1.205 0.241,-0.242 0.519,-0.354 0.876,-0.354 0.636,0 1.066,0.357 1.187,0.983 H 0 c -0.047,-0.157 -0.148,-0.347 -0.443,-0.347 -0.146,0 -0.272,0.055 -0.345,0.152 -0.077,0.1 -0.132,0.219 -0.132,0.826 0,0.607 0.055,0.725 0.132,0.826 0.074,0.096 0.199,0.152 0.345,0.152 C -0.148,0.347 -0.047,0.157 0,0" /></g><g
           transform="translate(512.9761,714.751)"
           id="g490"><path
             id="path492"
             style="fill:#e42313;fill-opacity:1;fill-rule:nonzero;stroke:none"
             d="M 0,0 C -0.365,0 -0.637,-0.109 -0.881,-0.354 -1.2,-0.672 -1.2,-1.103 -1.199,-1.559 V -1.668 C -1.2,-2.124 -1.2,-2.555 -0.881,-2.874 -0.637,-3.118 -0.365,-3.228 0,-3.228 c 0.365,0 0.636,0.11 0.881,0.355 v -10e-4 c 0.318,0.319 0.318,0.749 0.317,1.205 v 0.11 C 1.199,-1.102 1.199,-0.672 0.881,-0.354 0.637,-0.109 0.365,0 0,0 m 0.35,-2.431 c -0.078,-0.1 -0.208,-0.16 -0.35,-0.16 -0.142,0 -0.273,0.06 -0.35,0.16 -0.078,0.103 -0.126,0.21 -0.126,0.817 0,0.612 0.048,0.719 0.126,0.822 0.076,0.098 0.206,0.156 0.35,0.156 0.144,0 0.274,-0.058 0.35,-0.156 0.078,-0.103 0.126,-0.21 0.126,-0.822 0,-0.607 -0.048,-0.714 -0.126,-0.817" /></g></g></g><g
       transform="translate(516.7803,714.7238)"
       id="g494"><path
         id="path496"
         style="fill:#e42313;fill-opacity:1;fill-rule:nonzero;stroke:none"
         d="m 0,0 h -0.723 v -3.173 h 2.087 v 0.636 H 0 Z" /></g><g
       id="g498"><g
         clip-path="url(#clipPath504)"
         id="g500"><g
           transform="translate(520.9159,714.751)"
           id="g506"><path
             id="path508"
             style="fill:#e42313;fill-opacity:1;fill-rule:nonzero;stroke:none"
             d="M 0,0 C -0.365,0 -0.637,-0.109 -0.881,-0.354 -1.2,-0.672 -1.199,-1.103 -1.199,-1.559 v -0.109 c 0,-0.456 -10e-4,-0.887 0.318,-1.206 0.244,-0.244 0.516,-0.354 0.881,-0.354 0.365,0 0.636,0.11 0.881,0.355 v -10e-4 c 0.319,0.319 0.318,0.75 0.318,1.206 v 0.109 c 0,0.456 10e-4,0.887 -0.318,1.205 C 0.637,-0.109 0.365,0 0,0 m 0.35,-2.431 c -0.078,-0.1 -0.208,-0.16 -0.35,-0.16 -0.167,0 -0.29,0.082 -0.349,0.16 -0.079,0.103 -0.127,0.21 -0.127,0.817 0,0.61 0.05,0.721 0.127,0.822 0.075,0.098 0.205,0.156 0.349,0.156 0.144,0 0.274,-0.058 0.35,-0.156 0.078,-0.103 0.126,-0.21 0.126,-0.822 0,-0.607 -0.048,-0.714 -0.126,-0.817" /></g><g
           transform="translate(525.5813,713.7498)"
           id="g510"><path
             id="path512"
             style="fill:#e42313;fill-opacity:1;fill-rule:nonzero;stroke:none"
             d="m 0,0 h 0.73 c -0.059,0.333 -0.293,1.001 -1.224,1.001 -0.362,0 -0.633,-0.109 -0.877,-0.353 -0.318,-0.319 -0.318,-0.75 -0.318,-1.206 v -0.109 c 0,-0.456 0,-0.887 0.318,-1.205 0.242,-0.242 0.52,-0.354 0.877,-0.354 0.403,0 0.677,0.105 0.917,0.354 v 0 c 0.232,0.235 0.318,0.521 0.318,1.054 v 0.414 h -1.197 v -0.59 h 0.479 v -0.084 c 0,-0.154 -0.048,-0.287 -0.134,-0.374 -0.087,-0.091 -0.216,-0.138 -0.383,-0.138 -0.145,0 -0.271,0.055 -0.345,0.151 -0.077,0.1 -0.127,0.212 -0.127,0.827 0,0.609 0.05,0.721 0.127,0.821 0.076,0.1 0.202,0.156 0.345,0.156 0.27,0 0.42,-0.109 0.494,-0.365" /></g></g></g><path
       id="path514"
       style="fill:#e42313;fill-opacity:1;fill-rule:nonzero;stroke:none"
       d="m 528.205,711.551 h 0.724 v 3.172 h -0.724 z" /><g
       id="g518"
       clip-path="url(#clipPath522)"><g
         id="g524"
         transform="translate(533.0268,712.0488)"><path
           d="M 0,0 C 0.182,0.292 0.181,0.653 0.181,1.036 V 1.143 C 0.182,1.599 0.182,2.03 -0.136,2.349 -0.381,2.593 -0.653,2.702 -1.018,2.702 -1.383,2.702 -1.654,2.593 -1.899,2.348 -2.217,2.03 -2.217,1.599 -2.216,1.143 V 1.034 c -10e-4,-0.456 -10e-4,-0.887 0.317,-1.205 0.245,-0.245 0.517,-0.354 0.881,-0.354 0.242,0 0.442,0.047 0.612,0.145 l 0.025,0.015 0.244,-0.245 0.353,0.353 -0.232,0.231 z M -0.56,0.606 -0.566,0.524 -0.753,0.711 -1.105,0.358 -0.877,0.129 -0.946,0.116 C -0.973,0.111 -0.994,0.111 -1.018,0.111 c -0.167,0 -0.29,0.083 -0.349,0.16 -0.079,0.103 -0.126,0.21 -0.126,0.818 0,0.609 0.05,0.721 0.126,0.821 0.075,0.098 0.206,0.156 0.349,0.156 0.144,0 0.275,-0.058 0.35,-0.156 0.077,-0.1 0.127,-0.212 0.127,-0.821 0,-0.235 -0.011,-0.389 -0.019,-0.483"
           style="fill:#e42313;fill-opacity:1;fill-rule:nonzero;stroke:none"
           id="path526" /></g><g
         id="g528"
         transform="translate(535.7587,712.6717)"><path
           d="m 0,0 v 2.052 h -0.723 v -2.07 c 0,-0.655 0.501,-1.13 1.19,-1.13 0.695,0 1.199,0.475 1.199,1.13 v 2.07 H 0.943 V 0 C 0.943,-0.316 0.761,-0.512 0.467,-0.512 0.179,-0.512 0,-0.316 0,0"
           style="fill:#e42313;fill-opacity:1;fill-rule:nonzero;stroke:none"
           id="path530" /></g></g><g
       transform="translate(540.0804,712.8329)"
       id="g532"><path
         id="path534"
         style="fill:#e42313;fill-opacity:1;fill-rule:nonzero;stroke:none"
         d="M 0,0 H 1.205 V 0.636 H 0 V 1.255 H 1.41 V 1.891 H -0.723 V -1.282 H 1.41 v 0.636 H 0 Z" /></g></g></svg>
